{
	"name": "Mailbox",
	"device_id": "mailbox",
	"device_stats_interval": 60,
	"wifi": {
		"ssid": "ENC[AES256_GCM,data:tUYLJTDujVGdvb1jCCQe8g==,iv:uWTkPvrwZ5VmixeLOuwalet3C3DQN7qv4Ro950b2i/g=,tag:b97iGHab2gmH8z30ry6VLg==,type:str]",
		"password": "ENC[AES256_GCM,data:U05O/GrD4R2WW77IeeY9ML4b4aV6KxWBdw==,iv:TRTsvGkVCbM5Yy+MO5wNXaa7xUCsDUIb+eFFUq4KdYU=,tag:voj8bhR+unXYEThb3jhS8w==,type:str]"
	},
	"mqtt": {
		"host": "ENC[AES256_GCM,data:nhznCx9jkToKXjBx,iv:rSYfS7XqA3jkNzTotDVpopW1jwhHTixm7pNR3twyXZE=,tag:uUyx7Vc/n1oQO0A1p2PhOw==,type:str]",
		"port": "ENC[AES256_GCM,data:djGF+Q==,iv:inyJNentg+nXoKQ//ZSE8aGNyrExlBP7JQO4aDPoVrk=,tag:04jeUCEq50FqzDw1c4LN3A==,type:float]",
		"username": "ENC[AES256_GCM,data:rJwI2yGA,iv:vRk5UDxVHTdrnKMih70SwQQDmrQq50kVHNBCHm08HMM=,tag:Rh7O1yCQE6xby0tGxyU6Ng==,type:str]",
		"password": "ENC[AES256_GCM,data:nW1t2bSJy1Ca,iv:P8TQOlTfhuLStyegVpXq9kPGu5+eFwyfZmu0vPP1jwk=,tag:VKm8a/3o/igR3qrCvxF6Jw==,type:str]",
		"base_topic": "ENC[AES256_GCM,data:aDShmn/O4uKkZl7Z2Q==,iv:YJzDR4zlgCqgqTkhhr+J36tVhMDGAFaRzME3jJTZRp4=,tag:o7zWMxQVYE5MX5FNXBpyBg==,type:str]"
	},
	"ota": {
		"enabled": true
	},
	"sops": {
		"kms": null,
		"gcp_kms": null,
		"azure_kv": null,
		"lastmodified": "2020-07-29T14:21:57Z",
		"mac": "ENC[AES256_GCM,data:0aHIIeNqYV5ezx+rLZSZm7vo+AZpYpwu3JGjBF6CsS+2CUWH2eyXhqQUaVTjjlyVyHAnSsc2u6P4EVFXP7cp6PED7t0KcoTEtnLC3FCokMMC6xacRb+ufCDX6rUHuHMuCyiS8fNgghpIvLT6POemumKb2cTmHmiBliUIRDV9qSg=,iv:3iyJEXZlPpxThOjqosiF88VvskmOumilu/lfdGhPo1I=,tag:OyqgAQk1YP+4mAFm/PzLlA==,type:str]",
		"pgp": [
			{
				"created_at": "2020-06-17T19:52:30Z",
				"enc": "-----BEGIN PGP MESSAGE-----\n\nhQEMA34V6nxCxSPcAQf/bSzW18mbgR6w7zq8MfeuNDOSwFjVmNei41Yq+xKf/jMP\nCSonBDtnKXDKueFDDREiw8+tE0IsD4xYezdMH14wxSAqX3GoyOI0JYeLRCHhSuEp\npto54rAc6JLn1/tt4AMEKuyyx0r68gE0oUOrlaooLu7wE12NX4Bi329Te7+XERaj\n8yeXafRaGnFYIhlbmoXJ7sGdTKU3gRkO5l3gU1/AHT+nmcGREXqjFU6EORxkQ7sW\nsH+EULdvQsuntA8iS0qm+8R1k2/PpIgknMh9iGz0gBWRI+zd3GhuahFCtySxjGNF\nfU0fw3m6QWg6Apv5pd6Jaz0oXsW4oH/1fTimNPab/NJeAXRxi+Kov7FoxgFauWmj\nQpKpL3mrbskIcQNGMLPOgNl24o2I/8qVQPUtcB43sxiVipxIPYvm+Tvn62IhMP//\niVcyT3c9vPrMfyYROgKibC+Zi2zuZnf1vW85Q2cwLQ==\n=HfjB\n-----END PGP MESSAGE-----\n",
				"fp": "AAB4DB74203BE2BEFA50EF188B8DD7F8335FABBF"
			},
			{
				"created_at": "2020-06-17T19:52:30Z",
				"enc": "-----BEGIN PGP MESSAGE-----\n\nhQIMA9DPUK3YOK4YAQ//dCg0+DmvrBSTbj9SPAN2MzPnp//vzUm2gM5qPmEWaCex\n4xnwS9EkL0POG5kiBEWZqM/FTaGb8Q7URpOZEum85r9SqOFsLrGb88i+N73BR+Nc\na5CyFVYCXL12rQ1eyi9IdgjAncgLXN8neS9OQ6BywGpFwZ8D++iScGK2kcuoPdtq\n0t/GDHHCS08DVGblx3gfp4PcLQFeuDifL9iBuXQivI4knmtSiHbcyh/B0lqVUUUG\n3Gkd/SROlZxe6EfFVGCC0UTCA2fQRGK9IauYdsrNhAI9BlE+fSftrkx3RiSmVb/3\nergtOnk59SPW5WrZIZp6uyYyS3gODid5SAOs1K5rJrJshLAIdLNcOh+TvrjY4ERR\njKNa/Lb14jgmQlravSIVueEAyXc6oQUJIp7RqqdQfW2Mcfh0K6eQYIelHnOE92c7\naWMWurjPxyX5KRlReFzUuapptLgsSX5zzVEgu5oeLSj3GtxHQ8xMhifh89A8vJN0\nwajEPftn8MSFnAy1EVpvAF2MHKqkuFyZor3c0mY1+hpwMF3KRVSnBiYOZ23GMZMz\nU6LhBnMUUmA3UeQHlqjAfILOcKd/YMLbNAKtle0kB2b23z3xa+9c4vG8Npe7kYHO\nZu9tmJOVtWx5VhUgs/qx9EWsVLJBvObFS7O/jsaGSu5nASemW4cIWFBvwf5Pw/DS\nXgExIEdXsGxLkKo98ufYkLK0SWRf6CDPowCdFuY1GlQiA0Bh3vpjLSXRsNm/VhdV\nqWLlqIZJxBJEDp6CJ0iAk98mncWqI484pOf4sqENb/g+Wvq34SlcjjfOgwsqQ+Y=\n=1mun\n-----END PGP MESSAGE-----\n",
				"fp": "B55F329EC0E5694EFA1CC0F2BEBBE93C70B130F9"
			}
		],
		"encrypted_regex": "^(wifi|mqtt)$",
		"version": "3.4.0"
	}
}